   382.50000000000000        465.93808636071810     
   387.50000000000000        475.00397343531472     
   392.50000000000000        483.61624241301621     
   397.50000000000000        491.77353736471076     
   402.50000000000000        499.47609303220986     
   407.50000000000006        506.72560339558635     
   412.50000000000006        513.52509404340708     
   417.50000000000000        519.87879899497477     
   422.50000000000000        525.79204247900259     
   427.50000000000000        531.27112604584067     
   432.50000000000000        536.32322127929581     
   437.50000000000000        540.95626827791011     
   442.50000000000000        545.17887999306549     
   447.50000000000000        549.00025244112385     
   452.50000000000000        552.43008074783654     
   457.50000000000000        555.47848093423852     
   462.50000000000000        558.15591731312577     
   467.50000000000000        560.47313533290367     
   472.50000000000006        562.44109968020734     
   477.50000000000006        564.07093743330427     
   482.50000000000000        565.37388604409443     
   487.50000000000000        566.36124591684722     
   492.50000000000000        567.04433734593204     
   497.50000000000000        567.43446157221786     
   502.49999999999994        567.54286571788361     
   507.50000000000006        567.38071136182032     
   512.50000000000000        566.95904652198635     
   517.50000000000011        566.28878081687424     
   522.50000000000000        565.38066358514106     
   527.50000000000011        564.24526475033326     
   532.50000000000000        562.89295822616714     
   537.50000000000011        561.33390766687853     
   542.50000000000000        559.57805437647721     
   547.50000000000011        557.63510720030115     
   552.50000000000000        555.51453423181727     
   557.50000000000011        553.22555617717012     
   562.50000000000000        550.77714122937005     
   567.50000000000011        548.17800131323179     
   572.50000000000000        545.43658957113473     
   577.50000000000000        542.56109896833527     
   582.50000000000000        539.55946190492637     
   587.49999999999989        536.43935072953309     
   592.50000000000000        533.20817905747890     
   597.49999999999989        529.87310380342853     
   602.50000000000000        526.44102784542008     
   607.49999999999989        522.91860324371908     
   612.50000000000000        519.31223494407629     
   617.49999999999989        515.62808490078339     
   622.50000000000000        511.87207656032956     
   627.50000000000000        508.04989965157540     
   632.50000000000011        504.16701523310934     
   637.50000000000000        500.22866095289015     
   642.50000000000011        496.23985647942078     
   647.50000000000000        492.20540906753075     
   652.50000000000011        488.12991922541192     
   657.50000000000000        484.01778645285867     
   662.50000000000011        479.87321502370742     
   667.50000000000000        475.70021978829254     
   672.50000000000011        471.50263197433679     
   677.50000000000000        467.28410496707619     
   682.50000000000011        463.04812005162523     
   687.50000000000000        458.79799210259512     
   692.50000000000011        454.53687520782682     
   697.50000000000000        450.26776821478882     
   702.50000000000000        445.99352018972763     
   707.50000000000000        441.71683578106274     
   712.49999999999989        437.44028047979577     
   717.50000000000000        433.16628577086379     
   722.49999999999989        428.89715417041725     
   727.50000000000000        424.63506414494407     
   732.49999999999989        420.38207490904506     
   737.50000000000000        416.14013109939634     
   742.49999999999989        411.91106732317559     
   747.50000000000000        407.69661257980732     
   752.50000000000000        403.49839455547016     
   757.50000000000011        399.31794379027934     
   762.50000000000000        395.15669771850958     
   767.50000000000011        391.01600458260515     
   772.50000000000000        386.89712722206986     
   777.50000000000011        382.80124673861292     
