   382.50000000000000        300.80137467815950     
   387.50000000000000        314.96783095770547     
   392.50000000000000        339.28705330997047     
   397.50000000000000        410.49873857450382     
   402.50000000000000        545.69913903138661     
   407.50000000000006        547.08082074222705     
   412.50000000000006        561.49425321051683     
   417.50000000000000        556.24634727864986     
   422.50000000000000        533.79960470192350     
   427.50000000000000        488.63232895285410     
   432.50000000000000        467.66959670723656     
   437.50000000000000        548.61341138701937     
   442.50000000000000        591.78288905603233     
   447.50000000000000        615.35962586846699     
   452.50000000000000        653.19018761906432     
   457.50000000000000        656.55067101695579     
   462.50000000000000        653.81454514075710     
   467.50000000000000        658.81342287513371     
   472.50000000000006        656.06807651198642     
   477.50000000000006        671.52072569394795     
   482.50000000000000        659.20087835074253     
   487.50000000000000        601.55162944520748     
   492.50000000000000        632.66842236838363     
   497.50000000000000        631.65506940845842     
   502.49999999999994        601.18381335723564     
   507.50000000000006        630.80168836093856     
   512.50000000000000        608.44733308960406     
   517.50000000000011        554.04509745013775     
   522.50000000000000        602.24141603251019     
   527.50000000000011        586.98877389918641     
   532.50000000000000        600.32586622075689     
   537.50000000000011        611.91426572724890     
   542.50000000000000        594.28218199130367     
   547.50000000000011        601.72938865705851     
   552.50000000000000        602.21231322634458     
   557.50000000000011        586.62764820636460     
   562.50000000000000        596.35132805711260     
   567.50000000000011        586.55806498068705     
   572.50000000000000        595.04977822219030     
   577.50000000000000        587.95527797688442     
   582.50000000000000        594.18480873752583     
   587.49999999999989        565.27600713282175     
   592.50000000000000        578.17654344537971     
   597.49999999999989        573.16667484427467     
   602.50000000000000        565.19771986647027     
   607.49999999999989        562.82141076921323     
   612.50000000000000        539.42417263685491     
   617.49999999999989        533.60677211664859     
   622.50000000000000        532.83946722887822     
   627.50000000000000        532.37278331347761     
   632.50000000000011        522.36446176645427     
   637.50000000000000        522.29933710964610     
   642.50000000000011        512.98425986343727     
   647.50000000000000        503.66377391378762     
   652.50000000000011        505.89015765806568     
   657.50000000000000        469.22225434074829     
   662.50000000000011        497.47616522394571     
   667.50000000000000        493.45890797120518     
   672.50000000000011        486.29665127559849     
   677.50000000000000        481.34494169950972     
   682.50000000000011        475.21129225430064     
   687.50000000000000        470.27894742033686     
   692.50000000000011        465.15227003607350     
   697.50000000000000        460.81806986600725     
   702.50000000000000        449.57549745078512     
   707.50000000000000        448.07920355869214     
   712.49999999999989        441.94035626317685     
   717.50000000000000        428.69619181312157     
   722.49999999999989        430.07737828411950     
   727.50000000000000        424.36593526166723     
   732.49999999999989        421.92672819648612     
   737.50000000000000        415.01542849314347     
   742.49999999999989        405.71459279613759     
   747.50000000000000        408.13254826639530     
   752.50000000000000        404.79020429588564     
   757.50000000000011        399.51458542156740     
   762.50000000000000        396.62841266444400     
   767.50000000000011        387.18307774043211     
   772.50000000000000        384.18759163520775     
   777.50000000000011        382.47822754757829     
